module gitlab.com/k640/x-user

go 1.18

require (
	github.com/gin-gonic/gin v1.8.1
	github.com/golang/mock v1.6.0
)

require (
	github.com/davecgh/go-spew v1.1.1 // indirect
	github.com/go-playground/validator/v10 v10.11.0 // indirect
	github.com/jmoiron/sqlx v1.3.5 // indirect
	github.com/pmezard/go-difflib v1.0.0 // indirect
	github.com/stretchr/testify v1.7.4 // indirect
	golang.org/x/xerrors v0.0.0-20220609144429-65e65417b02f // indirect
	gopkg.in/go-playground/assert.v1 v1.2.1 // indirect
	gopkg.in/yaml.v3 v3.0.1 // indirect
)

require (
	github.com/gin-contrib/sse v0.1.0 // indirect
	github.com/go-playground/locales v0.14.0 // indirect
	github.com/go-playground/universal-translator v0.18.0 // indirect
	github.com/go-playground/validator v9.31.0+incompatible
	github.com/go-sql-driver/mysql v1.6.0
	github.com/goccy/go-json v0.9.7 // indirect
	github.com/json-iterator/go v1.1.12 // indirect
	github.com/leodido/go-urn v1.2.1 // indirect
	github.com/mattn/go-isatty v0.0.14 // indirect
	github.com/modern-go/concurrent v0.0.0-20180306012644-bacd9c7ef1dd // indirect
	github.com/modern-go/reflect2 v1.0.2 // indirect
	github.com/pelletier/go-toml/v2 v2.0.2 // indirect
	github.com/ugorji/go/codec v1.2.7 // indirect
	golang.org/x/crypto v0.0.0-20220525230936-793ad666bf5e // indirect
	golang.org/x/net v0.0.0-20220621193019-9d032be2e588 // indirect
	golang.org/x/sys v0.0.0-20220622161953-175b2fd9d664 // indirect
	golang.org/x/text v0.3.7 // indirect
	google.golang.org/protobuf v1.28.0 // indirect
	gopkg.in/yaml.v2 v2.4.0 // indirect
)
